<?xml version="1.0" standalone="no"?>
<!DOCTYPE svg PUBLIC "-//W3C//DTD SVG 20010904//EN"
 "http://www.w3.org/TR/2001/REC-SVG-20010904/DTD/svg10.dtd">
<svg version="1.0" xmlns="http://www.w3.org/2000/svg"
 width="200.000000pt" height="200.000000pt" viewBox="0 0 200.000000 200.000000"
 preserveAspectRatio="xMidYMid meet">
<metadata>
Created by potrace 1.11, written by Peter Selinger 2001-2013
</metadata>
<g transform="translate(0.000000,200.000000) scale(0.100000,-0.100000)"
fill="#000000" stroke="none">
<path d="M1470 1392 c41 -57 87 -100 203 -190 82 -64 159 -124 170 -134 l21
-16 -24 -20 c-14 -12 -102 -81 -196 -154 -139 -108 -178 -144 -208 -192 l-37
-59 38 28 c30 23 481 375 503 393 6 5 -1 10 -268 220 -273 214 -264 208 -202
124z"/>
<path d="M450 1324 c-80 -63 -192 -152 -250 -196 -58 -45 -111 -87 -118 -93
-11 -10 18 -37 145 -136 87 -68 165 -129 173 -136 53 -43 182 -143 186 -143 8
0 -88 126 -115 150 -16 14 -84 68 -151 120 -68 52 -134 104 -147 115 l-24 20
198 156 c153 121 206 168 230 208 18 28 29 51 25 50 -4 0 -72 -52 -152 -115z"/>
<path d="M840 1285 c-28 -28 -50 -54 -50 -59 0 -4 59 -89 130 -187 72 -98 130
-182 130 -186 0 -4 -82 -7 -182 -5 l-183 3 -55 -56 c-53 -53 -54 -55 -27 -56
35 -1 448 -1 487 0 23 1 43 14 80 52 28 28 50 54 50 58 0 3 -59 87 -130 186
-71 98 -127 182 -125 185 2 4 83 6 179 5 l175 -1 56 56 55 56 -270 0 -270 0
-50 -51z"/>
</g>
</svg>
